"NumCirc";"FactNullDist";"FactDiamDist";"Fact0125mDist";"Fact025mDist";"Fact05mDist"
"2";"0.75";"0.80";"0.85";"0.90";"0.90"
"3";"0.65";"0.70";"0.75";"0.80";"0.85"
"4";"0.60";"0.60";"0.70";"0.75";"0.80"
"5";"0.55";"0.55";"0.65";"0.70";"0.80"
"6";"0.50";"0.55";"0.60";"0.70";"0.80"
"7";"0.45";"0.51";"0.59";"0.67";"0.76"
"8";"0.43";"0.48";"0.57";"0.65";"0.75"
"9";"0.41";"0.46";"0.55";"0.63";"0.74"
"12";"0.36";"0.42";"0.51";"0.59";"0.71"
"16";"0.32";"0.38";"0.47";"0.56";"0.68"
"20";"0.29";"0.35";"0.44";"0.53";"0.66"
